Comp Bio Project 1
…
After removing NA’s, I lost 57 rows, which is a significant amount. However, upon a closer look, the majority of the rows were in the beginning of the dataset. My dataset originally started in February but after removing NA’s it starts in April. This is due to the fact that early on in the pandemic, data for many of the variables in the dataset was not collected. Thus, February and March don’t have detailed information for most of the variables. This is an artifact of the initial pandemic response. The loss is unfortunate but should not affect my exploratory analysis is a major way. It just reduced the time period I have data for.

Wrangling and Tidying: Rearranging Wide/Long

To put my summary statistics in prettier tables, I calculated the statistics, then used pivot_longer to display them in an easy to read way.

Summary Statistics

Average

average <- covData %>% summarize_if(is.numeric,mean) %>% pivot_longer(everything(),names_to = "Measure", values_to = "Average") %>% mutate(Average=round(Average)) %>% arrange(desc(Average))
average

## # A tibble: 26 x 2
##    Measure                         Average
##    <chr>                             <dbl>
##  1 total_case_cumulative             19324
##  2 strac_total_staffed_beds           4505
##  3 Year                               2020
##  4 strac_available_staffed_beds       1135
##  5 strac_total_ventilators             732
##  6 strac_available_ventilators         486
##  7 strac_covid_positive_in_hospita     424
##  8 total_case_daily_change             287
##  9 deaths_cumulative                   287
## 10 strac_covid_positive_in_icu         165
## # ... with 16 more rows
…
The average daily change in cases was 287 cases.

The average daily change in deaths was 5 deaths.

The average daily wind speed was 9 mph.

We can see that over this period, there were a lot of new cases as shown by the large daily average. Contrast this with the relatively smaller average daily change in death. We can see that most people who were infected do not die. There was also a decent amount of wind over this period, which is unlikely to have been a contributing factor in the spread of the virus, but may be interesting to consider,especially with new evidence of it’s airborne transmission.

Standard Deviation

standard_deviation <- covData %>% summarize_if(is.numeric,sd) %>% pivot_longer(everything(),names_to = "Measure", values_to = "Standard_Deviation") %>% mutate(Standard_Deviation=round(Standard_Deviation)) %>% arrange(desc(Standard_Deviation))
standard_deviation

## # A tibble: 26 x 2
##    Measure                         Standard_Deviation
##    <chr>                                        <dbl>
##  1 total_case_cumulative                        19564
##  2 strac_available_staffed_beds                   588
##  3 total_case_daily_change                        531
##  4 strac_covid_positive_in_hospita                408
##  5 strac_total_staffed_beds                       406
##  6 deaths_cumulative                              328
##  7 strac_covid_positive_in_icu                    144
##  8 strac_covid_positive_on_ventila                 96
##  9 WDF2                                            88
## 10 WDF5                                            88
## # ... with 16 more rows
…
The standard deviation of total staffed beds was 406 beds.

The standard deviation of available ventilators was 77 ventilators.

The standard deviation of total ventilators was 33 ventilators.

This provides a measure of the spread of values for each variable, giving us an idea of how much these indicators changed during the course of the pandemic. We can see that there was a fairly high amount of traffic in and out of hospital beds. This may be good or bad depending on why the patient was moved out of the bed. We can also see that there was a fair amount of fluctuation in the usage of ventilators, implying that the number of critical cases fluctuated during this period as well. Interestingly, there is also some standard deviation of the total amount of ventilators. A dive into the data suggests that this is due to the addition of a large number of new ventilators during this period, documenting the addition of supplies during the county’s coronavirus response.

Max

Max <- covData %>% summarize_if(is.numeric,max) %>% pivot_longer(everything(),names_to = "Measure", values_to = "Maximum_Value") %>% arrange(desc(Maximum_Value))
Max

## # A tibble: 26 x 2
##    Measure                         Maximum_Value
##    <chr>                                   <dbl>
##  1 total_case_cumulative                   53794
##  2 total_case_daily_change                  5501
##  3 strac_total_staffed_beds                 4848
##  4 strac_available_staffed_beds             4392
##  5 Year                                     2020
##  6 strac_covid_positive_in_hospita          1267
##  7 deaths_cumulative                        1068
##  8 strac_total_ventilators                   807
##  9 strac_available_ventilators               606
## 10 strac_covid_positive_in_icu               438
## # ... with 16 more rows
…
The maximum value of total cases was 53794 cases.

The maximum value of daily case change was 5501 cases.

The maximum value of total deaths was 1068 deaths.

From the high maximum total case we can see the toll of the pandemic at the time this data was collected in mid-September. We can also see the single worse day in the pandemic in terms of new cases for Bexar County. It should be noted that there was one day where backlogged cases had been entered and thus this max value may reflect that data idiosyncrasy and not a real daily case change count. We can also see the death toll the virus has taken on the community with the total deaths at the time of the data collection. These metrics show that COVID-19 is no joke and that we should all take health recommendations seriously.

Min

Min <- covData %>% summarize_if(is.numeric,min) %>% pivot_longer(everything(),names_to = "Measure", values_to = "Minimum_Value") %>% arrange(Minimum_Value) %>% filter(`Minimum_Value`>0)
Min

## # A tibble: 22 x 2
##    Measure                         Minimum_Value
##    <chr>                                   <dbl>
##  1 Day                                      1   
##  2 AWND                                     2.91
##  3 Month                                    4   
##  4 total_case_daily_change                  5   
##  5 deaths_cumulative                        9   
##  6 WDF2                                    10   
##  7 WDF5                                    10   
##  8 WSF2                                    10.1 
##  9 WSF5                                    13   
## 10 strac_covid_positive_on_ventila         14   
## # ... with 12 more rows
…
